{
  "search_api": {
    "result": [
      {
        "areaName": [
          {
            "value": "London"
          }
        ],
        "country": [
          {
            "value": "United Kingdom"
          }
        ],
        "region": [
          {
            "value": "City of London, Greater London"
          }
        ],
        "latitude": "51.520",
        "longitude": "-0.110",
        "population": "7421228",
        "weatherUrl": [
          {
            "value": "http://api.worldweatheronline.com/v2/weather.aspx?q=51.52,-0.11"
          }
        ]
      },
      {
        "areaName": [
          {
            "value": "London"
          }
        ],
        "country": [
          {
            "value": "Canada"
          }
        ],
        "region": [
          {
            "value": "Ontario"
          }
        ],
        "latitude": "42.980",
        "longitude": "-81.250",
        "population": "346774",
        "weatherUrl": [
          {
            "value": "http://api.worldweatheronline.com/v2/weather.aspx?q=42.98,-81.25"
          }
        ]
      },
      {
        "areaName": [
          {
            "value": "London"
          }
        ],
        "country": [
          {
            "value": "Belize"
          }
        ],
        "region": [
          {
            "value": "Orange Walk"
          }
        ],
        "latitude": "17.980",
        "longitude": "-88.430",
        "population": "0",
        "weatherUrl": [
          {
            "value": "http://api.worldweatheronline.com/v2/weather.aspx?q=17.98,-88.43"
          }
        ]
      }
    ]
  }
}